{
  "return_code": 0,
  "output": [
    [
      {
        "status": "CREATE_PRINCIPAL"
      },
      {
        "status": "SET"
      },
      {
        "status": "SET_DELEGATION"
      },
      {
        "status": "RETURNING",
        "output": "x"
      }
    ],
    [
      {
        "status": "DENIED"
      }
    ]
  ]
}
